SummerLandsat75_300_900m_0,SummerLandsat75_300_900m_1,SummerLandsat75_300_900m_2,SummerLandsat75_300_900m_3,SummerLandsat75_300_900m_4,SummerLandsat75_300_900m_5,SummerLandsat75_300_900m_6,SummerLandsat75_300_900m_7
805.671997070312,601.517211914062,1.00096189975739,0.942595183849335,1.00096189975739,0.942595183849335,1.00095510482788,0.942611992359161
727.456726074219,588.283386230469,1.02026629447937,0.972362101078033,1.02415215969086,0.975434422492981,1.02108955383301,0.972203493118286
735.487976074219,578.587829589844,1.01867628097534,0.96848201751709,1.01868259906769,0.968321621417999,1.01870512962341,0.968361258506775
1737.15466308594,1455.54455566406,1.27105295658112,1.1760071516037,1.27177560329437,1.17563605308533,1.27158987522125,1.16935420036316
2211.1064453125,2344.03295898438,1.25104367733002,1.20108819007874,1.24013388156891,1.2039577960968,1.23794066905975,1.20626521110535
2231.16821289062,1214.48974609375,1.36235594749451,1.17246079444885,1.33968949317932,1.15756642818451,1.32703042030334,1.15806269645691
2187.05004882812,3062.10131835938,1.16026866436005,1.17671740055084,1.16516244411469,1.17964744567871,1.16715586185455,1.18433046340942
2139.4296875,1652.61608886719,1.29496049880981,1.17878580093384,1.28580176830292,1.1885529756546,1.26125514507294,1.19762754440308
2089.32275390625,3221.20263671875,1.14643383026123,1.19875681400299,1.14865517616272,1.20221209526062,1.15118014812469,1.1938807964325
2576.23681640625,2306.36059570312,1.30458831787109,1.19640707969666,1.30409598350525,1.19801211357117,1.30267024040222,1.20308673381805
2428.23852539062,1106.62377929688,1.39481604099274,1.15595102310181,1.37003493309021,1.15530776977539,1.36174845695496,1.15010118484497
2413.91748046875,1551.8466796875,1.34916949272156,1.17388439178467,1.34561264514923,1.16180455684662,1.35582530498505,1.16309249401093
2436.39404296875,3646.73608398438,1.12639379501343,1.15245795249939,1.12712442874908,1.15709280967712,1.12263488769531,1.15390646457672
2182.38696289062,2856.63745117188,1.15041840076447,1.14844918251038,1.15676379203796,1.15426623821259,1.15432345867157,1.1518886089325
2136.8203125,2715.67309570312,1.16602277755737,1.16103208065033,1.16774797439575,1.16280734539032,1.1678421497345,1.16347205638885
1865.98327636719,2498.33618164062,1.16944599151611,1.18040883541107,1.16973471641541,1.1815619468689,1.17132794857025,1.18145322799683
1936.80603027344,841.419067382812,1.34377312660217,1.13456737995148,1.32863259315491,1.1328376531601,1.33253991603851,1.13017320632935
1637.2216796875,658.589782714844,1.28778028488159,1.09585976600647,1.31327986717224,1.11407482624054,1.31590282917023,1.1179381608963
2464.11889648438,2862.52954101562,1.21514499187469,1.20159792900085,1.23366093635559,1.1919127702713,1.24401211738586,1.18967378139496
